pipeline/pipelined_top.vcd
$version Generated by VerilatedVcd $end
$date Mon Dec 12 13:40:09 2022 $end
$timescale 1ps $end

 $scope module TOP $end
  $var wire 32 !! a0 [31:0] $end
  $var wire  1 | clk $end
  $var wire  1 } rst $end
  $var wire  1 ~ trigger $end
  $scope module pipelined_top $end
   $var wire  3 3 ALUControlD [2:0] $end
   $var wire  3 B ALUControlE [2:0] $end
   $var wire 32 & ALUResultE [31:0] $end
   $var wire 32 E ALUResultM [31:0] $end
   $var wire 32 L ALUResultW [31:0] $end
   $var wire  1 4 ALUSrcD $end
   $var wire  1 C ALUSrcE $end
   $var wire  1 2 BranchD $end
   $var wire  1 A BranchE $end
   $var wire 32 %! DATA_WIDTH [31:0] $end
   $var wire 32 6 ImmExtD [31:0] $end
   $var wire 32 : ImmExtE [31:0] $end
   $var wire 32 Y Instr [31:0] $end
   $var wire 32 ( InstrD [31:0] $end
   $var wire  1 5 JalrmuxSelD $end
   $var wire  1 1 JumpD $end
   $var wire  1 @ JumpE $end
   $var wire 32 $! MemOut [31:0] $end
   $var wire  1 0 MemWriteD $end
   $var wire  1 ? MemWriteE $end
   $var wire  1 K MemWriteM $end
   $var wire 32 [ PC [31:0] $end
   $var wire 32 ' PCD [31:0] $end
   $var wire 32 9 PCE [31:0] $end
   $var wire 32 Z PCPlus4 [31:0] $end
   $var wire 32 ) PCPlus4D [31:0] $end
   $var wire 32 ; PCPlus4E [31:0] $end
   $var wire 32 G PCPlus4M [31:0] $end
   $var wire 32 N PCPlus4W [31:0] $end
   $var wire  1 # PCSrcE $end
   $var wire 32 $ PCTargetE [31:0] $end
   $var wire 32 "! RD1D [31:0] $end
   $var wire 32 7 RD1E [31:0] $end
   $var wire 32 #! RD2D [31:0] $end
   $var wire 32 8 RD2E [31:0] $end
   $var wire  5 - RdD [4:0] $end
   $var wire  5 < RdE [4:0] $end
   $var wire  5 H RdM [4:0] $end
   $var wire  5 * RdW [4:0] $end
   $var wire 32 M ReadDataW [31:0] $end
   $var wire  1 . RegWriteD $end
   $var wire  1 = RegWriteE $end
   $var wire  1 I RegWriteM $end
   $var wire  1 + RegWriteW $end
   $var wire  2 / ResultSrcD [1:0] $end
   $var wire  2 > ResultSrcE [1:0] $end
   $var wire  2 J ResultSrcM [1:0] $end
   $var wire  2 O ResultSrcW [1:0] $end
   $var wire 32 , ResultW [31:0] $end
   $var wire 32 F WriteDataM [31:0] $end
   $var wire  1 D ZeroE $end
   $var wire 32 !! a0 [31:0] $end
   $var wire  1 | clk $end
   $var wire  1 % jalrmuxSelE $end
   $var wire  1 } rst $end
   $var wire  1 ~ trigger $end
   $scope module CUDE $end
    $var wire  3 3 ALUControlD [2:0] $end
    $var wire  3 B ALUControlE [2:0] $end
    $var wire  1 4 ALUSrcD $end
    $var wire  1 C ALUSrcE $end
    $var wire  1 2 BranchD $end
    $var wire  1 A BranchE $end
    $var wire  1 5 JalrmuxSelD $end
    $var wire  1 % JalrmuxSelE $end
    $var wire  1 1 JumpD $end
    $var wire  1 @ JumpE $end
    $var wire  1 0 MemWriteD $end
    $var wire  1 ? MemWriteE $end
    $var wire  1 . RegWriteD $end
    $var wire  1 = RegWriteE $end
    $var wire  2 / ResultSrcD [1:0] $end
    $var wire  2 > ResultSrcE [1:0] $end
    $var wire  1 | clk $end
    $scope module ALUControl_regDE $end
     $var wire 32 &! DATA_WIDTH [31:0] $end
     $var wire  1 | clk $end
     $var wire  3 3 in [2:0] $end
     $var wire  3 B out [2:0] $end
    $upscope $end
    $scope module ALUSrc_regDE $end
     $var wire 32 '! DATA_WIDTH [31:0] $end
     $var wire  1 | clk $end
     $var wire  1 4 in [0:0] $end
     $var wire  1 C out [0:0] $end
    $upscope $end
    $scope module Branch_regDE $end
     $var wire 32 '! DATA_WIDTH [31:0] $end
     $var wire  1 | clk $end
     $var wire  1 2 in [0:0] $end
     $var wire  1 A out [0:0] $end
    $upscope $end
    $scope module JalrMuxSel_regDE $end
     $var wire 32 '! DATA_WIDTH [31:0] $end
     $var wire  1 | clk $end
     $var wire  1 5 in [0:0] $end
     $var wire  1 % out [0:0] $end
    $upscope $end
    $scope module Jump_regDE $end
     $var wire 32 '! DATA_WIDTH [31:0] $end
     $var wire  1 | clk $end
     $var wire  1 1 in [0:0] $end
     $var wire  1 @ out [0:0] $end
    $upscope $end
    $scope module MemWrite_regDE $end
     $var wire 32 '! DATA_WIDTH [31:0] $end
     $var wire  1 | clk $end
     $var wire  1 0 in [0:0] $end
     $var wire  1 ? out [0:0] $end
    $upscope $end
    $scope module RegWrite_regDE $end
     $var wire 32 '! DATA_WIDTH [31:0] $end
     $var wire  1 | clk $end
     $var wire  1 . in [0:0] $end
     $var wire  1 = out [0:0] $end
    $upscope $end
    $scope module ResultSrc_regDE $end
     $var wire 32 (! DATA_WIDTH [31:0] $end
     $var wire  1 | clk $end
     $var wire  2 / in [1:0] $end
     $var wire  2 > out [1:0] $end
    $upscope $end
   $upscope $end
   $scope module CUEM $end
    $var wire  1 ? MemWriteE $end
    $var wire  1 K MemWriteM $end
    $var wire  1 = RegWriteE $end
    $var wire  1 I RegWriteM $end
    $var wire  2 > ResultSrcE [1:0] $end
    $var wire  2 J ResultSrcM [1:0] $end
    $var wire  1 | clk $end
    $scope module MemWrite_regEM $end
     $var wire 32 '! DATA_WIDTH [31:0] $end
     $var wire  1 | clk $end
     $var wire  1 ? in [0:0] $end
     $var wire  1 K out [0:0] $end
    $upscope $end
    $scope module RegWrite_regEM $end
     $var wire 32 '! DATA_WIDTH [31:0] $end
     $var wire  1 | clk $end
     $var wire  1 = in [0:0] $end
     $var wire  1 I out [0:0] $end
    $upscope $end
    $scope module ResultSrc_regEM $end
     $var wire 32 (! DATA_WIDTH [31:0] $end
     $var wire  1 | clk $end
     $var wire  2 > in [1:0] $end
     $var wire  2 J out [1:0] $end
    $upscope $end
   $upscope $end
   $scope module CUMW $end
    $var wire  1 I RegWriteM $end
    $var wire  1 + RegWriteW $end
    $var wire  2 J ResultSrcM [1:0] $end
    $var wire  2 O ResultSrcW [1:0] $end
    $var wire  1 | clk $end
    $scope module RegWrite_regMW $end
     $var wire 32 '! DATA_WIDTH [31:0] $end
     $var wire  1 | clk $end
     $var wire  1 I in [0:0] $end
     $var wire  1 + out [0:0] $end
    $upscope $end
    $scope module ResultSrc_regMW $end
     $var wire 32 (! DATA_WIDTH [31:0] $end
     $var wire  1 | clk $end
     $var wire  2 J in [1:0] $end
     $var wire  2 O out [1:0] $end
    $upscope $end
   $upscope $end
   $scope module DE_reg $end
    $var wire 32 %! DATA_WIDTH [31:0] $end
    $var wire 32 6 ImmExtD [31:0] $end
    $var wire 32 : ImmExtE [31:0] $end
    $var wire 32 ' PCD [31:0] $end
    $var wire 32 9 PCE [31:0] $end
    $var wire 32 ) PCPlus4D [31:0] $end
    $var wire 32 ; PCPlus4E [31:0] $end
    $var wire 32 "! RD1D [31:0] $end
    $var wire 32 7 RD1E [31:0] $end
    $var wire 32 #! RD2D [31:0] $end
    $var wire 32 8 RD2E [31:0] $end
    $var wire  5 - RdD [4:0] $end
    $var wire  5 < RdE [4:0] $end
    $var wire  1 | clk $end
    $scope module immExt_regDE $end
     $var wire 32 %! DATA_WIDTH [31:0] $end
     $var wire  1 | clk $end
     $var wire 32 6 in [31:0] $end
     $var wire 32 : out [31:0] $end
    $upscope $end
    $scope module pc_regDE $end
     $var wire 32 %! DATA_WIDTH [31:0] $end
     $var wire  1 | clk $end
     $var wire 32 ' in [31:0] $end
     $var wire 32 9 out [31:0] $end
    $upscope $end
    $scope module pcplus4_regDE $end
     $var wire 32 %! DATA_WIDTH [31:0] $end
     $var wire  1 | clk $end
     $var wire 32 ) in [31:0] $end
     $var wire 32 ; out [31:0] $end
    $upscope $end
    $scope module rd1_regDE $end
     $var wire 32 %! DATA_WIDTH [31:0] $end
     $var wire  1 | clk $end
     $var wire 32 "! in [31:0] $end
     $var wire 32 7 out [31:0] $end
    $upscope $end
    $scope module rd2_regDE $end
     $var wire 32 %! DATA_WIDTH [31:0] $end
     $var wire  1 | clk $end
     $var wire 32 #! in [31:0] $end
     $var wire 32 8 out [31:0] $end
    $upscope $end
    $scope module rd3_regDE $end
     $var wire 32 )! DATA_WIDTH [31:0] $end
     $var wire  1 | clk $end
     $var wire  5 - in [4:0] $end
     $var wire  5 < out [4:0] $end
    $upscope $end
   $upscope $end
   $scope module DataMem $end
    $var wire 32 E A [31:0] $end
    $var wire 32 %! ADDRESS_WIDTH [31:0] $end
    $var wire 32 %! DATA_WIDTH [31:0] $end
    $var wire 32 $! RD [31:0] $end
    $var wire 32 F WD [31:0] $end
    $var wire  1 K WE $end
    $var wire  1 | clk $end
   $upscope $end
   $scope module EM_reg $end
    $var wire 32 & ALUResultE [31:0] $end
    $var wire 32 E ALUResultM [31:0] $end
    $var wire 32 %! DATA_WIDTH [31:0] $end
    $var wire 32 ; PCPlus4E [31:0] $end
    $var wire 32 G PCPlus4M [31:0] $end
    $var wire  5 < RdE [4:0] $end
    $var wire  5 H RdM [4:0] $end
    $var wire 32 8 WriteDataE [31:0] $end
    $var wire 32 F WriteDataM [31:0] $end
    $var wire  1 | clk $end
    $scope module aluresult_regEM $end
     $var wire 32 %! DATA_WIDTH [31:0] $end
     $var wire  1 | clk $end
     $var wire 32 & in [31:0] $end
     $var wire 32 E out [31:0] $end
    $upscope $end
    $scope module pcplus4_regEM $end
     $var wire 32 %! DATA_WIDTH [31:0] $end
     $var wire  1 | clk $end
     $var wire 32 ; in [31:0] $end
     $var wire 32 G out [31:0] $end
    $upscope $end
    $scope module rd3_regEM $end
     $var wire 32 )! DATA_WIDTH [31:0] $end
     $var wire  1 | clk $end
     $var wire  5 < in [4:0] $end
     $var wire  5 H out [4:0] $end
    $upscope $end
    $scope module writedata_regEM $end
     $var wire 32 %! DATA_WIDTH [31:0] $end
     $var wire  1 | clk $end
     $var wire 32 8 in [31:0] $end
     $var wire 32 F out [31:0] $end
    $upscope $end
   $upscope $end
   $scope module FD_reg $end
    $var wire 32 %! DATA_WIDTH [31:0] $end
    $var wire 32 ( InstrD [31:0] $end
    $var wire 32 Y InstrF [31:0] $end
    $var wire 32 ' PCD [31:0] $end
    $var wire 32 [ PCF [31:0] $end
    $var wire 32 ) PCPlus4D [31:0] $end
    $var wire 32 Z PCPlus4F [31:0] $end
    $var wire  1 | clk $end
    $scope module PCPlus4FD $end
     $var wire 32 %! DATA_WIDTH [31:0] $end
     $var wire  1 | clk $end
     $var wire 32 Z in [31:0] $end
     $var wire 32 ) out [31:0] $end
    $upscope $end
    $scope module instr_regFD $end
     $var wire 32 %! DATA_WIDTH [31:0] $end
     $var wire  1 | clk $end
     $var wire 32 Y in [31:0] $end
     $var wire 32 ( out [31:0] $end
    $upscope $end
    $scope module pc_regFD $end
     $var wire 32 %! DATA_WIDTH [31:0] $end
     $var wire  1 | clk $end
     $var wire 32 [ in [31:0] $end
     $var wire 32 ' out [31:0] $end
    $upscope $end
   $upscope $end
   $scope module MW_reg $end
    $var wire 32 E ALUResultM [31:0] $end
    $var wire 32 L ALUResultW [31:0] $end
    $var wire 32 %! DATA_WIDTH [31:0] $end
    $var wire 32 G PCPlus4M [31:0] $end
    $var wire 32 N PCPlus4W [31:0] $end
    $var wire  5 H RdM [4:0] $end
    $var wire  5 * RdW [4:0] $end
    $var wire 32 $! ReadDataM [31:0] $end
    $var wire 32 M ReadDataW [31:0] $end
    $var wire  1 | clk $end
    $scope module aluresult_regMW $end
     $var wire 32 %! DATA_WIDTH [31:0] $end
     $var wire  1 | clk $end
     $var wire 32 E in [31:0] $end
     $var wire 32 L out [31:0] $end
    $upscope $end
    $scope module pcplus4_regMW $end
     $var wire 32 %! DATA_WIDTH [31:0] $end
     $var wire  1 | clk $end
     $var wire 32 G in [31:0] $end
     $var wire 32 N out [31:0] $end
    $upscope $end
    $scope module rd3_regMW $end
     $var wire 32 )! DATA_WIDTH [31:0] $end
     $var wire  1 | clk $end
     $var wire  5 H in [4:0] $end
     $var wire  5 * out [4:0] $end
    $upscope $end
    $scope module readdata_regMW $end
     $var wire 32 %! DATA_WIDTH [31:0] $end
     $var wire  1 | clk $end
     $var wire 32 $! in [31:0] $end
     $var wire 32 M out [31:0] $end
    $upscope $end
   $upscope $end
   $scope module PCSrcE_logic $end
    $var wire  1 A Branch $end
    $var wire  1 @ Jump $end
    $var wire  1 # PCSrc $end
    $var wire  1 D Zero $end
    $var wire  1 P result $end
   $upscope $end
   $scope module decode $end
    $var wire  3 3 ALUControlD [2:0] $end
    $var wire  1 4 ALUSrcD $end
    $var wire  1 2 BranchD $end
    $var wire 32 %! DATA_WIDTH [31:0] $end
    $var wire 32 6 ImmExtD [31:0] $end
    $var wire  3 Q ImmSrcD [2:0] $end
    $var wire 32 ( InstrD [31:0] $end
    $var wire  1 1 JumpD $end
    $var wire  1 0 MemWriteD $end
    $var wire 32 "! RD1 [31:0] $end
    $var wire 32 #! RD2 [31:0] $end
    $var wire  5 - RdD [4:0] $end
    $var wire  5 * RdW [4:0] $end
    $var wire  1 . RegWriteD $end
    $var wire  1 + RegWriteW $end
    $var wire  2 / ResultSrcD [1:0] $end
    $var wire 32 , ResultW [31:0] $end
    $var wire 32 !! a0 [31:0] $end
    $var wire  1 | clk $end
    $var wire  1 5 jalrmuxSelD $end
    $scope module Extend $end
     $var wire 32 %! ADDRESS_WIDTH [31:0] $end
     $var wire 32 6 ImmExt [31:0] $end
     $var wire  3 Q ImmSrc [2:0] $end
     $var wire 25 R instr [31:7] $end
    $upscope $end
    $scope module RegFile $end
     $var wire  5 S A1 [4:0] $end
     $var wire  5 T A2 [4:0] $end
     $var wire  5 * A3 [4:0] $end
     $var wire 32 )! ADDRESS_WIDTH [31:0] $end
     $var wire 32 %! DATA_WIDTH [31:0] $end
     $var wire 32 "! RD1 [31:0] $end
     $var wire 32 #! RD2 [31:0] $end
     $var wire 32 , WD3 [31:0] $end
     $var wire  1 + WE3 $end
     $var wire 32 !! a0 [31:0] $end
     $var wire  1 | clk $end
     $var wire 32 \ ram_array[0] [31:0] $end
     $var wire 32 f ram_array[10] [31:0] $end
     $var wire 32 g ram_array[11] [31:0] $end
     $var wire 32 h ram_array[12] [31:0] $end
     $var wire 32 i ram_array[13] [31:0] $end
     $var wire 32 j ram_array[14] [31:0] $end
     $var wire 32 k ram_array[15] [31:0] $end
     $var wire 32 l ram_array[16] [31:0] $end
     $var wire 32 m ram_array[17] [31:0] $end
     $var wire 32 n ram_array[18] [31:0] $end
     $var wire 32 o ram_array[19] [31:0] $end
     $var wire 32 ] ram_array[1] [31:0] $end
     $var wire 32 p ram_array[20] [31:0] $end
     $var wire 32 q ram_array[21] [31:0] $end
     $var wire 32 r ram_array[22] [31:0] $end
     $var wire 32 s ram_array[23] [31:0] $end
     $var wire 32 t ram_array[24] [31:0] $end
     $var wire 32 u ram_array[25] [31:0] $end
     $var wire 32 v ram_array[26] [31:0] $end
     $var wire 32 w ram_array[27] [31:0] $end
     $var wire 32 x ram_array[28] [31:0] $end
     $var wire 32 y ram_array[29] [31:0] $end
     $var wire 32 ^ ram_array[2] [31:0] $end
     $var wire 32 z ram_array[30] [31:0] $end
     $var wire 32 { ram_array[31] [31:0] $end
     $var wire 32 _ ram_array[3] [31:0] $end
     $var wire 32 ` ram_array[4] [31:0] $end
     $var wire 32 a ram_array[5] [31:0] $end
     $var wire 32 b ram_array[6] [31:0] $end
     $var wire 32 c ram_array[7] [31:0] $end
     $var wire 32 d ram_array[8] [31:0] $end
     $var wire 32 e ram_array[9] [31:0] $end
    $upscope $end
    $scope module cu $end
     $var wire  3 3 ALUControl [2:0] $end
     $var wire  1 4 ALUSrc $end
     $var wire  1 2 Branch $end
     $var wire  3 Q ImmSrc [2:0] $end
     $var wire  1 5 JalrmuxSel $end
     $var wire  1 1 Jump $end
     $var wire  1 0 MemWrite $end
     $var wire  1 . RegWrite $end
     $var wire  2 / ResultSrc [1:0] $end
     $var wire  3 V funct3 [2:0] $end
     $var wire  1 W funct7 $end
     $var wire  7 U op [6:0] $end
    $upscope $end
   $upscope $end
   $scope module execute $end
    $var wire  3 B ALUControlE [2:0] $end
    $var wire 32 & ALUResult [31:0] $end
    $var wire  1 C ALUSrcE $end
    $var wire 32 %! DATA_WIDTH [31:0] $end
    $var wire 32 : ImmExtE [31:0] $end
    $var wire 32 9 PCE [31:0] $end
    $var wire 32 $ PCTargetE [31:0] $end
    $var wire 32 7 RD1E [31:0] $end
    $var wire 32 8 RD2E [31:0] $end
    $var wire 32 X SrcBE [31:0] $end
    $var wire  1 D ZeroE $end
    $scope module ALU $end
     $var wire  3 B ALUControl [2:0] $end
     $var wire 32 & ALUResult [31:0] $end
     $var wire 32 7 ALUSrcA [31:0] $end
     $var wire 32 X ALUSrcB [31:0] $end
     $var wire 32 %! DATA_WIDTH [31:0] $end
     $var wire  1 D Zero $end
    $upscope $end
    $scope module AluMux $end
     $var wire 32 %! DATA_WIDTH [31:0] $end
     $var wire 32 8 d0 [31:0] $end
     $var wire 32 : d1 [31:0] $end
     $var wire 32 X out [31:0] $end
     $var wire  1 C s $end
    $upscope $end
   $upscope $end
   $scope module fetch $end
    $var wire 32 [ A [31:0] $end
    $var wire 32 %! ADDRESS_WIDTH [31:0] $end
    $var wire 32 & ALUResult [31:0] $end
    $var wire 32 %! DATAOUT_WIDTH [31:0] $end
    $var wire 32 [ PC [31:0] $end
    $var wire 32 Z PCPlus4 [31:0] $end
    $var wire  1 # PCSrc $end
    $var wire 32 $ PCTarget [31:0] $end
    $var wire 32 Y RD [31:0] $end
    $var wire  1 | clk $end
    $var wire  1 % jalrmuxSel $end
    $var wire  1 } rst $end
    $var wire  1 ~ trigger $end
    $scope module mem $end
     $var wire 32 [ A [31:0] $end
     $var wire 32 %! ADDRESS_WIDTH [31:0] $end
     $var wire 32 %! DATAOUT_WIDTH [31:0] $end
     $var wire 32 *! DATA_WIDTH [31:0] $end
     $var wire 32 Y RD [31:0] $end
    $upscope $end
    $scope module pc $end
     $var wire 32 %! ADDRESS_WIDTH [31:0] $end
     $var wire 32 & ALUResult [31:0] $end
     $var wire 32 [ PC [31:0] $end
     $var wire  1 # PCSrc $end
     $var wire 32 $ PCTarget [31:0] $end
     $var wire  1 | clk $end
     $var wire  1 % jalrmuxSel $end
     $var wire  1 } rst $end
     $var wire  1 ~ trigger $end
    $upscope $end
   $upscope $end
   $scope module resultmux $end
    $var wire 32 %! DATA_WIDTH [31:0] $end
    $var wire 32 L d0 [31:0] $end
    $var wire 32 M d1 [31:0] $end
    $var wire 32 N d2 [31:0] $end
    $var wire 32 , out [31:0] $end
    $var wire  2 O s [1:0] $end
   $upscope $end
  $upscope $end
 $upscope $end
$enddefinitions $end


#0
0#
b00000000000000000000000000000000 $
0%
b00000000000000000000000000000000 &
b00000000000000000000000000000000 '
b00000000000000000000000000000000 (
b00000000000000000000000000000000 )
b00000 *
0+
b00000000000000000000000000000000 ,
b00000 -
0.
b00 /
00
01
02
b000 3
04
05
b00000000000000000000000000000000 6
b00000000000000000000000000000000 7
b00000000000000000000000000000000 8
b00000000000000000000000000000000 9
b00000000000000000000000000000000 :
b00000000000000000000000000000000 ;
b00000 <
0=
b00 >
0?
0@
0A
b000 B
0C
1D
b00000000000000000000000000000000 E
b00000000000000000000000000000000 F
b00000000000000000000000000000000 G
b00000 H
0I
b00 J
0K
b00000000000000000000000000000000 L
b00000000000000000000000000000000 M
b00000000000000000000000000000000 N
b00 O
0P
b000 Q
b0000000000000000000000000 R
b00000 S
b00000 T
b0000000 U
b000 V
0W
b00000000000000000000000000000000 X
b00000000000000000000000000000000 Y
b00000000000000000000000000000100 Z
b00000000000000000000000000000000 [
b00000000000000000000000000000000 \
b00000000000000000000000000000000 ]
b00000000000000000000000000000000 ^
b00000000000000000000000000000000 _
b00000000000000000000000000000000 `
b00000000000000000000000000000000 a
b00000000000000000000000000000000 b
b00000000000000000000000000000000 c
b00000000000000000000000000000000 d
b00000000000000000000000000000000 e
b00000000000000000000000000000000 f
b00000000000000000000000000000000 g
b00000000000000000000000000000000 h
b00000000000000000000000000000000 i
b00000000000000000000000000000000 j
b00000000000000000000000000000000 k
b00000000000000000000000000000000 l
b00000000000000000000000000000000 m
b00000000000000000000000000000000 n
b00000000000000000000000000000000 o
b00000000000000000000000000000000 p
b00000000000000000000000000000000 q
b00000000000000000000000000000000 r
b00000000000000000000000000000000 s
b00000000000000000000000000000000 t
b00000000000000000000000000000000 u
b00000000000000000000000000000000 v
b00000000000000000000000000000000 w
b00000000000000000000000000000000 x
b00000000000000000000000000000000 y
b00000000000000000000000000000000 z
b00000000000000000000000000000000 {
1|
1}
1~
b00000000000000000000000000000000 !!
b00000000000000000000000000000000 "!
b00000000000000000000000000000000 #!
b00000000000000000000000000000000 $!
b00000000000000000000000000100000 %!
b00000000000000000000000000000011 &!
b00000000000000000000000000000001 '!
b00000000000000000000000000000010 (!
b00000000000000000000000000000101 )!
b00000000000000000000000000001000 *!
#1
b00000000000100000000010110010011 Y
0|
#2
b10111111110000000000000000000100 Z
b10111111110000000000000000000000 [
1|
#3
b10111111110000000000000000000000 '
b00000000000100000000010110010011 (
b10111111110000000000000000000100 )
b01011 -
1.
14
b00000000000000000000000000000001 6
b0000000000010000000001011 R
b00001 T
b0010011 U
0|
#4
1|
#5
b10111111110000000000000000000001 $
b00000000000000000000000000000001 &
b10111111110000000000000000000000 9
b00000000000000000000000000000001 :
b10111111110000000000000000000100 ;
b01011 <
1=
1C
0D
b00000000000000000000000000000001 X
0|
#6
1|
0}
#7
b00000000000000000000000000000001 E
b10111111110000000000000000000100 G
b01011 H
1I
0|
#8
b00000000000000000000000000010011 Y
b10111111110000000000000000001000 Z
b10111111110000000000000000000100 [
1|
#9
b10111111110000000000000000000100 '
b00000000000000000000000000010011 (
b10111111110000000000000000001000 )
b01011 *
1+
b00000000000000000000000000000001 ,
b00000 -
b00000000000000000000000000000000 6
b00000000000000000000000000000001 L
b10111111110000000000000000000100 N
b0000000000000000000000000 R
b00000 T
0|
#10
b10111111110000000000000000001100 Z
b10111111110000000000000000001000 [
b00000000000000000000000000000001 g
1|
#11
b10111111110000000000000000000100 $
b00000000000000000000000000000000 &
b10111111110000000000000000001000 '
b10111111110000000000000000001100 )
b10111111110000000000000000000100 9
b00000000000000000000000000000000 :
b10111111110000000000000000001000 ;
b00000 <
1D
b00000000000000000000000000000000 X
0|
#12
b10111111110000000000000000010000 Z
b10111111110000000000000000001100 [
1|
#13
b10111111110000000000000000001000 $
b10111111110000000000000000001100 '
b10111111110000000000000000010000 )
b10111111110000000000000000001000 9
b10111111110000000000000000001100 ;
b00000000000000000000000000000000 E
b10111111110000000000000000001000 G
b00000 H
0|
#14
b00000000000101011000010110010011 Y
b10111111110000000000000000010100 Z
b10111111110000000000000000010000 [
1|
#15
b10111111110000000000000000001100 $
b10111111110000000000000000010000 '
b00000000000101011000010110010011 (
b10111111110000000000000000010100 )
b00000 *
b00000000000000000000000000000000 ,
b01011 -
b00000000000000000000000000000001 6
b10111111110000000000000000001100 9
b10111111110000000000000000010000 ;
b10111111110000000000000000001100 G
b00000000000000000000000000000000 L
b10111111110000000000000000001000 N
b0000000000010101100001011 R
b01011 S
b00001 T
0|
b00000000000000000000000000000001 "!
#16
b00000000000000000000000000000000 Y
b10111111110000000000000000011000 Z
b10111111110000000000000000010100 [
1|
#17
b10111111110000000000000000010001 $
b00000000000000000000000000000010 &
b10111111110000000000000000010100 '
b00000000000000000000000000000000 (
b10111111110000000000000000011000 )
b00000 -
0.
04
b00000000000000000000000000000000 6
b00000000000000000000000000000001 7
b10111111110000000000000000010000 9
b00000000000000000000000000000001 :
b10111111110000000000000000010100 ;
b01011 <
b10111111110000000000000000010000 G
b10111111110000000000000000001100 N
b0000000000000000000000000 R
b00000 S
b00000 T
b0000000 U
b00000000000000000000000000000001 X
0|
b00000000000000000000000000000000 "!
#18
b10111111110000000000000000011100 Z
b10111111110000000000000000011000 [
1|
#19
b10111111110000000000000000010100 $
b00000000000000000000000000000000 &
b10111111110000000000000000011000 '
b10111111110000000000000000011100 )
b00000000000000000000000000000000 7
b10111111110000000000000000010100 9
b00000000000000000000000000000000 :
b10111111110000000000000000011000 ;
b00000 <
0=
0C
b00000000000000000000000000000010 E
b10111111110000000000000000010100 G
b01011 H
b10111111110000000000000000010000 N
b00000000000000000000000000000000 X
0|
#20
b10111111110000000000000000100000 Z
b10111111110000000000000000011100 [
1|
#21
b10111111110000000000000000011000 $
b10111111110000000000000000011100 '
b10111111110000000000000000100000 )
b01011 *
b00000000000000000000000000000010 ,
b10111111110000000000000000011000 9
b10111111110000000000000000011100 ;
b00000000000000000000000000000000 E
b10111111110000000000000000011000 G
b00000 H
0I
b00000000000000000000000000000010 L
b10111111110000000000000000010100 N
0|
#22
b10111111110000000000000000100100 Z
b10111111110000000000000000100000 [
b00000000000000000000000000000010 g
1|
#23
b10111111110000000000000000011100 $
b10111111110000000000000000100000 '
b10111111110000000000000000100100 )
b00000 *
0+
b00000000000000000000000000000000 ,
b10111111110000000000000000011100 9
b10111111110000000000000000100000 ;
b10111111110000000000000000011100 G
b00000000000000000000000000000000 L
b10111111110000000000000000011000 N
0|
#24
b10111111110000000000000000101000 Z
b10111111110000000000000000100100 [
1|
#25
b10111111110000000000000000100000 $
b10111111110000000000000000100100 '
b10111111110000000000000000101000 )
b10111111110000000000000000100000 9
b10111111110000000000000000100100 ;
b10111111110000000000000000100000 G
b10111111110000000000000000011100 N
0|
#26
b10111111110000000000000000101100 Z
b10111111110000000000000000101000 [
1|
#27
b10111111110000000000000000100100 $
b10111111110000000000000000101000 '
b10111111110000000000000000101100 )
b10111111110000000000000000100100 9
b10111111110000000000000000101000 ;
b10111111110000000000000000100100 G
b10111111110000000000000000100000 N
0|
#28
b10111111110000000000000000110000 Z
b10111111110000000000000000101100 [
1|
#29
b10111111110000000000000000101000 $
b10111111110000000000000000101100 '
b10111111110000000000000000110000 )
b10111111110000000000000000101000 9
b10111111110000000000000000101100 ;
b10111111110000000000000000101000 G
b10111111110000000000000000100100 N
0|
#30
b10111111110000000000000000110100 Z
b10111111110000000000000000110000 [
1|
#31
b10111111110000000000000000101100 $
b10111111110000000000000000110000 '
b10111111110000000000000000110100 )
b10111111110000000000000000101100 9
b10111111110000000000000000110000 ;
b10111111110000000000000000101100 G
b10111111110000000000000000101000 N
0|
#32
b10111111110000000000000000111000 Z
b10111111110000000000000000110100 [
1|
#33
b10111111110000000000000000110000 $
b10111111110000000000000000110100 '
b10111111110000000000000000111000 )
b10111111110000000000000000110000 9
b10111111110000000000000000110100 ;
b10111111110000000000000000110000 G
b10111111110000000000000000101100 N
0|
#34
b10111111110000000000000000111100 Z
b10111111110000000000000000111000 [
1|
#35
b10111111110000000000000000110100 $
b10111111110000000000000000111000 '
b10111111110000000000000000111100 )
b10111111110000000000000000110100 9
b10111111110000000000000000111000 ;
b10111111110000000000000000110100 G
b10111111110000000000000000110000 N
0|
#36
b10111111110000000000000001000000 Z
b10111111110000000000000000111100 [
1|
#37
b10111111110000000000000000111000 $
b10111111110000000000000000111100 '
b10111111110000000000000001000000 )
b10111111110000000000000000111000 9
b10111111110000000000000000111100 ;
b10111111110000000000000000111000 G
b10111111110000000000000000110100 N
0|
#38
b10111111110000000000000001000100 Z
b10111111110000000000000001000000 [
1|
#39
b10111111110000000000000000111100 $
b10111111110000000000000001000000 '
b10111111110000000000000001000100 )
b10111111110000000000000000111100 9
b10111111110000000000000001000000 ;
b10111111110000000000000000111100 G
b10111111110000000000000000111000 N
0|
#40
b10111111110000000000000001001000 Z
b10111111110000000000000001000100 [
1|
#41
b10111111110000000000000001000000 $
b10111111110000000000000001000100 '
b10111111110000000000000001001000 )
b10111111110000000000000001000000 9
b10111111110000000000000001000100 ;
b10111111110000000000000001000000 G
b10111111110000000000000000111100 N
0|
#42
b10111111110000000000000001001100 Z
b10111111110000000000000001001000 [
1|
#43
b10111111110000000000000001000100 $
b10111111110000000000000001001000 '
b10111111110000000000000001001100 )
b10111111110000000000000001000100 9
b10111111110000000000000001001000 ;
b10111111110000000000000001000100 G
b10111111110000000000000001000000 N
0|
#44
b10111111110000000000000001010000 Z
b10111111110000000000000001001100 [
1|
#45
b10111111110000000000000001001000 $
b10111111110000000000000001001100 '
b10111111110000000000000001010000 )
b10111111110000000000000001001000 9
b10111111110000000000000001001100 ;
b10111111110000000000000001001000 G
b10111111110000000000000001000100 N
0|
#46
b10111111110000000000000001010100 Z
b10111111110000000000000001010000 [
1|
#47
b10111111110000000000000001001100 $
b10111111110000000000000001010000 '
b10111111110000000000000001010100 )
b10111111110000000000000001001100 9
b10111111110000000000000001010000 ;
b10111111110000000000000001001100 G
b10111111110000000000000001001000 N
0|
#48
b10111111110000000000000001011000 Z
b10111111110000000000000001010100 [
1|
#49
b10111111110000000000000001010000 $
b10111111110000000000000001010100 '
b10111111110000000000000001011000 )
b10111111110000000000000001010000 9
b10111111110000000000000001010100 ;
b10111111110000000000000001010000 G
b10111111110000000000000001001100 N
0|
#50
b10111111110000000000000001011100 Z
b10111111110000000000000001011000 [
1|
#51
b10111111110000000000000001010100 $
b10111111110000000000000001011000 '
b10111111110000000000000001011100 )
b10111111110000000000000001010100 9
b10111111110000000000000001011000 ;
b10111111110000000000000001010100 G
b10111111110000000000000001010000 N
0|
#52
b10111111110000000000000001100000 Z
b10111111110000000000000001011100 [
1|
#53
b10111111110000000000000001011000 $
b10111111110000000000000001011100 '
b10111111110000000000000001100000 )
b10111111110000000000000001011000 9
b10111111110000000000000001011100 ;
b10111111110000000000000001011000 G
b10111111110000000000000001010100 N
0|
#54
b10111111110000000000000001100100 Z
b10111111110000000000000001100000 [
1|
